#	Keyword	Position	Position History	Position History Date	Volume	URL	Traffic	Results	Last Update	Difficulty	CPC	Page URL inside
"1"	"keyword research"	"2"	""	""	"11000"	"http://backlinko.com/keyword-research"	"1521"	"20500000"	"2017-09-03 00:45:01"	"78"	"7.00"	""
"2"	"keyword analysis"	"3"	"2"	"2017-08-16 02:47:04"	"1300"	"http://backlinko.com/keyword-research"	"153"	"4340000"	"2017-08-30 04:32:15"	"87"	"8.00"	""
"3"	"how to do keyword research"	"6"	""	""	"500"	"http://backlinko.com/keyword-research"	"30"	"10600000"	"2017-08-30 04:20:04"	"68"	"12.00"	""
"4"	"seo keyword research"	"4"	""	""	"450"	"http://backlinko.com/keyword-research"	"27"	"3910000"	"2017-09-04 01:42:18"	"72"	"8.00"	""
"5"	"seo keyword research"	"5"	"4"	"2017-06-11 04:08:29"	"400"	"http://backlinko.com/keyword-research"	"21"	"2800000"	"2017-06-25 10:58:55"	"68"	"8.00"	""
"6"	"research keywords"	"3"	""	""	"150"	"http://backlinko.com/keyword-research"	"19"	"149000000"	"2017-08-26 10:02:14"	"77"	"6.00"	""
"7"	"keyword research guide"	"1"	""	""	"50"	"http://backlinko.com/keyword-research"	"15"	"9380000"	"2017-07-25 08:17:47"	"66"	"2.50"	""
"8"	"keyword researcher"	"3"	"4"	"2017-07-13 20:05:07"	"150"	"http://backlinko.com/keyword-research"	"13"	"780000"	"2017-08-13 06:49:41"	"84"	"6.00"	""
"9"	"key word research"	"2"	""	""	"80"	"http://backlinko.com/keyword-research"	"11"	"17800000"	"2017-08-30 16:13:30"	"78"	"7.00"	""
"10"	"research keyword"	"3"	"2"	"2017-07-16 18:19:18"	"90"	"http://backlinko.com/keyword-research"	"10"	"138000000"	"2017-09-04 09:37:21"	"78"	"5.00"	""
"11"	"seo research"	"6"	"4"	"2017-07-17 06:06:36"	"200"	"http://backlinko.com/keyword-research"	"9"	"8160000"	"2017-08-16 08:00:42"	"69"	"9.00"	""
"12"	"keyword research seo"	"4"	"3"	"2017-07-12 01:08:32"	"90"	"http://backlinko.com/keyword-research"	"8"	"3860000"	"2017-08-29 23:28:04"	"68"	"11.00"	""
"13"	"keywords research"	"5"	""	""	"200"	"http://backlinko.com/keyword-research"	"7"	"234000000"	"2017-08-12 23:56:45"	"85"	""	""
"14"	"how to research keywords"	"6"	""	""	"100"	"http://backlinko.com/keyword-research"	"5"	"147000000"	"2017-08-16 16:37:23"	"69"	"6.00"	""
"15"	"keyword research for seo"	"3"	"4"	"2017-07-04 10:00:44"	"40"	"http://backlinko.com/keyword-research"	"4.3"	"1110000"	"2017-08-16 10:11:35"	"70"	"8.00"	""
"16"	"key word analysis"	"2"	""	""	"30"	"http://backlinko.com/keyword-research"	"4.0"	"11800000"	"2017-07-21 16:43:06"	"82"	"4.50"	""
"17"	"backlinko keyword research"	"1"	""	""	"10"	"http://backlinko.com/keyword-research"	"3.4"	"57100"	"2017-09-04 06:16:15"	"69"	""	""
"18"	"keyword research tips"	"4"	"7"	"2017-06-21 01:07:13"	"30"	"http://backlinko.com/keyword-research"	"3.1"	"5560000"	"2017-07-23 15:56:51"	"33"	""	""
"19"	"researching keywords"	"5"	""	""	"20"	"http://backlinko.com/keyword-research"	"1.9"	"1180000"	"2017-07-29 16:55:44"	"76"	"7.00"	""
"20"	"how to do seo keyword research"	"6"	""	""	"30"	"http://backlinko.com/keyword-research"	"1.7"	"3380000"	"2017-09-04 06:23:49"	"71"	"11.00"	""
"21"	"kw research"	"4"	"2"	"2017-05-22 04:56:57"	"20"	"http://backlinko.com/keyword-research"	"1.5"	"77600000"	"2017-07-27 07:28:02"	"88"	"12.00"	""
"22"	"niche keyword research"	"8"	""	""	"40"	"http://backlinko.com/keyword-research"	"1.5"	"788000"	"2017-07-21 13:47:40"	"44"	"0.30"	""
"23"	"how to keyword research"	"6"	"5"	"2017-07-18 16:56:22"	"20"	"http://backlinko.com/keyword-research"	"1.5"	"18800000"	"2017-09-04 19:58:59"	"69"	"10.00"	""
"24"	"how to do keyword research for free"	"7"	"9"	"2017-07-21 14:11:43"	"30"	"http://backlinko.com/keyword-research"	"1.4"	"9660000"	"2017-09-09 23:14:13"	"70"	"6.00"	""
"25"	"keyword research and analysis"	"7"	"6"	"2017-07-07 16:06:39"	"30"	"http://backlinko.com/keyword-research"	"1.4"	"5720000"	"2017-08-21 13:43:38"	"82"	""	""
"26"	"organic keyword research"	"7"	"9"	"2017-06-15 21:34:28"	"30"	"http://backlinko.com/keyword-research"	"1.4"	"2350000"	"2017-07-19 17:58:49"	"76"	"7.00"	""
"27"	"how to do keyword research for seo"	"7"	"6"	"2017-07-20 09:33:45"	"20"	"http://backlinko.com/keyword-research"	"0.94"	"3240000"	"2017-09-09 19:21:51"	"72"	"12.00"	""
"28"	"keyword search analysis"	"10"	"17"	"2017-06-27 22:56:45"	"30"	"http://backlinko.com/keyword-research"	"0.85"	"8840000"	"2017-07-27 09:53:52"	"89"	""	""
"29"	"keywords for research"	"10"	"12"	"2017-07-18 16:10:10"	"30"	"http://backlinko.com/keyword-research"	"0.80"	"157000000"	"2017-09-09 04:12:28"	"55"	"6.00"	""
"30"	"seo keyword research report"	"8"	"5"	"2017-06-23 23:15:24"	"20"	"http://backlinko.com/keyword-research"	"0.77"	"4990000"	"2017-07-24 08:39:40"	"67"	""	""
"31"	"seo google keyword"	"10"	""	""	"30"	"http://backlinko.com/keyword-research"	"0.74"	"6230000"	"2017-08-03 18:52:56"	"84"	"0.70"	""
"32"	"keyword search for seo"	"10"	"11"	"2017-07-18 08:13:04"	"30"	"http://backlinko.com/keyword-research"	"0.74"	"6990000"	"2017-09-04 23:16:40"	"75"	""	""
"33"	"kyword"	"9"	"13"	"2017-06-18 21:52:58"	"20"	"http://backlinko.com/keyword-research"	"0.63"	"661000000"	"2017-07-20 16:08:10"	"79"	""	""
"34"	"easy keyword research"	"8"	"13"	"2017-07-01 18:43:25"	"20"	"http://backlinko.com/keyword-research"	"0.60"	"6560000"	"2017-08-11 23:12:58"	"64"	"2.50"	""
"35"	"how to find seo"	"7"	"11"	"2017-07-15 16:45:50"	"10"	"http://backlinko.com/keyword-research"	"0.49"	"22500000"	"2017-09-02 17:03:33"	"70"	"8.00"	""
"36"	"blog keyword research"	"8"	"7"	"2017-03-11 18:37:36"	"10"	"http://backlinko.com/keyword-research"	"0.40"	"4980000"	"2017-05-13 04:00:50"	"60"	"8.00"	""
