#	Keyword	Position	Position History	Position History Date	Volume	URL	Traffic	Results	Last Update	Difficulty	CPC	Page URL inside
"1"	"backlinko"	"1"	""	""	"2200"	"http://backlinko.com/newsletter"	"25"	"1030000"	"2017-09-04 21:54:34"	"19"	""	"Site links"
"2"	"seo hacks"	"4"	"6"	"2017-07-07 11:15:47"	"80"	"http://backlinko.com/newsletter"	"7"	"947000"	"2017-08-20 17:38:11"	"36"	"25.00"	""
"3"	"brian dean seo"	"1"	""	""	"150"	"http://backlinko.com/newsletter"	"1.2"	"542000"	"2017-08-16 07:19:42"	"38"	""	"Site links"
"4"	"brian dean backlinko"	"1"	""	""	"50"	"http://backlinko.com/newsletter"	"0.47"	"190000"	"2017-08-04 21:49:33"	"35"	""	"Site links"
"5"	"brian seo"	"1"	""	""	"30"	"http://backlinko.com/newsletter"	"0.31"	"8420000"	"2017-08-14 23:21:49"	"0"	""	"Site links"
"6"	"backlinko blog"	"2"	""	""	"80"	"http://backlinko.com/newsletter"	"0.30"	"141000"	"2017-08-22 00:19:09"	"67"	""	"Site links"
"7"	"brain dean"	"1"	""	""	"20"	"http://backlinko.com/newsletter"	"0.21"	"85000000"	"2017-07-30 10:58:56"	"39"	""	"Site links"
"8"	"backlinco"	"1"	""	""	"10"	"http://backlinko.com/newsletter"	"0.09"	"173000"	"2017-08-26 21:21:21"	"18"	""	"Site links"
"9"	"backlinko.com"	"1"	""	""	"20"	"http://backlinko.com/newsletter"	"0.09"	"141000"	"2017-07-19 16:40:57"	"31"	""	"Site links"
