#	Keyword	Position	Position History	Position History Date	Volume	URL	Traffic	Results	Last Update	Difficulty	CPC	Page URL inside
"1"	"adwords keyword planner"	"6"	""	""	"7700"	"http://backlinko.com/google-keyword-planner"	"62"	"434000"	"2017-09-05 01:32:22"	"46"	"2.50"	""
"2"	"google adwords keyword planner"	"6"	"8"	"2017-09-01 02:17:54"	"3400"	"http://backlinko.com/google-keyword-planner"	"47"	"6520000"	"2017-09-04 08:04:53"	"53"	"2.50"	""
"3"	"how to use google keyword planner"	"5"	""	""	"1000"	"http://backlinko.com/google-keyword-planner"	"37"	"9070000"	"2017-09-03 02:30:54"	"39"	"5.00"	""
"4"	"google keyword planner tool"	"8"	""	""	"2200"	"http://backlinko.com/google-keyword-planner"	"29"	"2150000"	"2017-08-28 04:02:12"	"56"	"3.50"	""
"5"	"google planner"	"6"	"7"	"2017-09-02 01:41:44"	"5700"	"http://backlinko.com/google-keyword-planner"	"27"	"55900000"	"2017-09-05 01:05:54"	"61"	"3.50"	""
"6"	"keyword planner tool"	"6"	"7"	"2017-08-17 06:55:14"	"1700"	"http://backlinko.com/google-keyword-planner"	"27"	"555000"	"2017-08-31 04:01:03"	"48"	"7.00"	""
"7"	"adwords keyword tool"	"10"	"9"	"2017-09-01 00:58:59"	"2900"	"http://backlinko.com/google-keyword-planner"	"25"	"1030000"	"2017-09-04 08:14:05"	"57"	"3.00"	""
"8"	"google kw planner"	"5"	"4"	"2017-08-03 11:42:54"	"250"	"http://backlinko.com/google-keyword-planner"	"17"	"2200000"	"2017-09-02 09:51:11"	"56"	"0.90"	""
"9"	"googlekeywordplanner"	"4"	"5"	"2017-08-03 11:28:08"	"150"	"http://backlinko.com/google-keyword-planner"	"15"	"392000"	"2017-09-02 15:39:41"	"46"	"2.00"	""
"10"	"google keywords planner"	"5"	"6"	"2017-08-18 12:56:15"	"900"	"http://backlinko.com/google-keyword-planner"	"15"	"4690000"	"2017-09-01 05:22:21"	"55"	"1.90"	""
"11"	"keywords planner"	"6"	"5"	"2017-08-18 03:01:39"	"1500"	"http://backlinko.com/google-keyword-planner"	"15"	"633000"	"2017-09-01 07:23:46"	"56"	"5.00"	""
"12"	"google key word research tool"	"8"	""	""	"400"	"http://backlinko.com/google-keyword-planner"	"14"	"2130000"	"2017-05-20 02:49:56"	"60"	"4.00"	""
"13"	"google keyword research"	"7"	""	""	"1500"	"http://backlinko.com/google-keyword-planner"	"14"	"7480000"	"2017-08-25 06:57:50"	"82"	"4.00"	""
"14"	"google’s keyword planner"	"6"	"4"	"2017-08-10 07:05:12"	"300"	"http://backlinko.com/google-keyword-planner"	"14"	"305000"	"2017-08-24 05:25:50"	"65"	"0.90"	""
"15"	"google keyword tool 2016"	"6"	"9"	"2017-08-02 14:23:13"	"200"	"http://backlinko.com/google-keyword-planner"	"13"	"7810000"	"2017-09-01 08:32:38"	"36"	"1.40"	""
"16"	"google keyword search"	"10"	""	""	"2600"	"http://backlinko.com/google-keyword-planner"	"13"	"48100000"	"2017-09-06 02:21:18"	"55"	"2.50"	""
"17"	"keyword tool google"	"10"	"12"	"2017-08-12 17:13:52"	"1200"	"http://backlinko.com/google-keyword-planner"	"13"	"5460000"	"2017-08-26 04:54:44"	"73"	"2.50"	""
"18"	"google key word planner"	"5"	""	""	"500"	"http://backlinko.com/google-keyword-planner"	"12"	"5680000"	"2017-09-05 00:01:48"	"55"	"1.00"	""
"19"	"google keywordplanner"	"5"	""	""	"150"	"http://backlinko.com/google-keyword-planner"	"12"	"5310000"	"2017-08-19 15:58:13"	"54"	"0.90"	""
"20"	"seo keyword planner"	"3"	"4"	"2017-07-14 16:17:03"	"100"	"http://backlinko.com/google-keyword-planner"	"11"	"2010000"	"2017-09-02 10:41:48"	"79"	"8.00"	""
"21"	"you can use keyword planner to identify"	"8"	"15"	"2017-08-20 04:41:43"	"350"	"http://backlinko.com/google-keyword-planner"	"10"	"3480000"	"2017-09-03 05:28:01"	"0"	"8.00"	""
"22"	"google keyword planning tool"	"7"	"6"	"2017-07-28 21:00:28"	"200"	"http://backlinko.com/google-keyword-planner"	"10"	"3110000"	"2017-08-27 07:26:19"	"61"	"3.00"	""
"23"	"how to use keyword planner"	"3"	"2"	"2017-08-02 12:35:17"	"150"	"http://backlinko.com/google-keyword-planner"	"10"	"3220000"	"2017-09-01 10:19:14"	"43"	"8.00"	""
"24"	"keyword planner google"	"7"	""	""	"600"	"http://backlinko.com/google-keyword-planner"	"8"	"5530000"	"2017-08-25 07:22:14"	"56"	"1.80"	""
"25"	"adword keyword tool"	"9"	"13"	"2017-08-11 05:52:49"	"700"	"http://backlinko.com/google-keyword-planner"	"8"	"145000"	"2017-08-26 03:12:34"	"51"	"4.50"	""
"26"	"keyword planner home"	"6"	""	""	"150"	"http://backlinko.com/google-keyword-planner"	"8"	"7270000"	"2017-09-07 08:47:45"	"46"	""	""
"27"	"oogle keyword tool"	"10"	"18"	"2017-08-23 06:04:23"	"300"	"http://backlinko.com/google-keyword-planner"	"7"	"10100000"	"2017-09-07 07:54:13"	"64"	"1.50"	""
"28"	"google adword keyword tool"	"9"	"12"	"2017-08-27 04:54:57"	"1000"	"http://backlinko.com/google-keyword-planner"	"7"	"323000"	"2017-09-10 21:51:02"	"57"	"3.00"	""
"29"	"how to use google keyword tool"	"6"	"4"	"2017-07-29 14:07:28"	"150"	"http://backlinko.com/google-keyword-planner"	"7"	"10800000"	"2017-08-28 04:36:33"	"31"	"3.50"	""
"30"	"google's keyword planner"	"6"	"4"	"2017-08-04 23:23:46"	"100"	"http://backlinko.com/google-keyword-planner"	"7"	"290000"	"2017-09-03 09:15:46"	"63"	""	""
"31"	"google ad words planner"	"6"	"9"	"2017-07-08 12:21:06"	"100"	"http://backlinko.com/google-keyword-planner"	"6"	"8870000"	"2017-08-10 14:28:40"	"56"	"0.40"	""
"32"	"kw planner"	"5"	"4"	"2017-07-09 12:54:50"	"90"	"http://backlinko.com/google-keyword-planner"	"6"	"2180000"	"2017-08-24 16:57:28"	"59"	"18.00"	""
"33"	"google word planner"	"6"	"7"	"2017-08-07 15:51:48"	"100"	"http://backlinko.com/google-keyword-planner"	"6"	"4820000"	"2017-09-07 21:34:47"	"57"	""	""
"34"	"google key words tools"	"10"	"14"	"2017-08-11 11:54:09"	"300"	"http://backlinko.com/google-keyword-planner"	"6"	"8560000"	"2017-08-25 09:09:31"	"73"	"2.00"	""
"35"	"google keywork planner"	"5"	"4"	"2017-07-16 21:12:25"	"90"	"http://backlinko.com/google-keyword-planner"	"6"	"742000"	"2017-09-05 22:44:04"	"56"	""	""
"36"	"google keywords tools"	"10"	"11"	"2017-07-29 17:11:53"	"250"	"http://backlinko.com/google-keyword-planner"	"6"	"9640000"	"2017-08-28 07:31:47"	"73"	"2.00"	""
"37"	"how to use google adwords keyword planner"	"5"	"4"	"2017-07-05 21:01:19"	"80"	"http://backlinko.com/google-keyword-planner"	"6"	"9430000"	"2017-08-19 03:15:36"	"43"	"8.00"	""
"38"	"google adword keyword planner"	"6"	""	""	"450"	"http://backlinko.com/google-keyword-planner"	"6"	"45600"	"2017-09-10 20:15:48"	"57"	"2.50"	""
"39"	"google keyword tool planner"	"6"	"9"	"2017-07-08 10:03:58"	"100"	"http://backlinko.com/google-keyword-planner"	"5"	"2120000"	"2017-08-22 06:35:19"	"52"	"1.90"	""
"40"	"keywordplanner"	"8"	""	""	"1600"	"http://backlinko.com/google-keyword-planner"	"5"	"703000"	"2017-08-24 05:35:26"	"56"	"5.00"	""
"41"	"word planner"	"6"	""	""	"90"	"http://backlinko.com/google-keyword-planner"	"5"	"6490000"	"2017-08-16 12:56:40"	"63"	"6.00"	""
"42"	"google key planner"	"6"	"4"	"2017-07-06 15:34:39"	"90"	"http://backlinko.com/google-keyword-planner"	"5"	"4180000"	"2017-08-19 23:15:34"	"56"	"2.50"	""
"43"	"google.com/keyword planner"	"9"	""	""	"150"	"http://backlinko.com/google-keyword-planner"	"5"	"5450000"	"2017-08-18 20:11:07"	"55"	""	""
"44"	"using google keyword planner"	"3"	"2"	"2017-07-23 21:22:40"	"50"	"http://backlinko.com/google-keyword-planner"	"5"	"2500000"	"2017-09-10 13:55:11"	"43"	""	""
"45"	"what is google keyword planner"	"6"	""	""	"90"	"http://backlinko.com/google-keyword-planner"	"5"	"5470000"	"2017-08-21 11:20:35"	"65"	""	""
"46"	"the google keyword planner"	"6"	"5"	"2017-07-06 16:04:12"	"80"	"http://backlinko.com/google-keyword-planner"	"4.9"	"5450000"	"2017-08-19 22:56:59"	"65"	"2.00"	""
"47"	"adwords keyword planner tool"	"7"	"9"	"2017-07-17 18:51:23"	"100"	"http://backlinko.com/google-keyword-planner"	"4.9"	"459000"	"2017-09-09 10:04:38"	"57"	"2.50"	""
"48"	"google's keyword tool"	"9"	"15"	"2017-07-13 19:06:02"	"150"	"http://backlinko.com/google-keyword-planner"	"4.9"	"638000"	"2017-08-13 07:47:54"	"73"	""	""
"49"	"google adword keyword planner tool"	"7"	"6"	"2017-07-14 13:40:11"	"100"	"http://backlinko.com/google-keyword-planner"	"4.8"	"82500"	"2017-08-31 23:07:21"	"52"	"3.50"	""
"50"	"keword planner"	"6"	""	""	"80"	"http://backlinko.com/google-keyword-planner"	"4.8"	"641000"	"2017-07-24 01:09:23"	"56"	"0.60"	""
"51"	"adwords keyword finder"	"6"	""	""	"80"	"http://backlinko.com/google-keyword-planner"	"4.6"	"99100"	"2017-08-26 23:40:50"	"67"	"10.00"	""
"52"	"googlekeyword planner"	"5"	"3"	"2017-07-09 15:12:59"	"60"	"http://backlinko.com/google-keyword-planner"	"4.5"	"5430000"	"2017-08-25 20:31:42"	"55"	"1.50"	""
"53"	"keyword research google"	"7"	""	""	"250"	"http://backlinko.com/google-keyword-planner"	"4.2"	"7720000"	"2017-08-26 04:42:10"	"86"	"3.50"	""
"54"	"google key word search"	"9"	"7"	"2017-07-20 05:05:02"	"150"	"http://backlinko.com/google-keyword-planner"	"4.1"	"29500000"	"2017-08-19 17:08:32"	"60"	"2.50"	""
"55"	"google ad word planner"	"6"	""	""	"70"	"http://backlinko.com/google-keyword-planner"	"4.0"	"53100"	"2017-08-17 21:08:12"	"62"	"0.70"	""
"56"	"keyword google"	"9"	"10"	"2017-08-24 06:10:16"	"300"	"http://backlinko.com/google-keyword-planner"	"3.9"	"29000000"	"2017-09-07 15:23:10"	"69"	""	""
"57"	"adwords keyword research"	"6"	""	""	"60"	"http://backlinko.com/google-keyword-planner"	"3.8"	"1390000"	"2017-08-24 21:01:42"	"63"	"8.00"	""
"58"	"key word planner"	"7"	"8"	"2017-08-13 06:13:42"	"700"	"http://backlinko.com/google-keyword-planner"	"3.8"	"6570000"	"2017-08-27 05:12:34"	"63"	""	""
"59"	"seed keywords"	"9"	"10"	"2017-07-19 04:11:59"	"100"	"http://backlinko.com/google-keyword-planner"	"3.7"	"22400000"	"2017-08-18 06:34:55"	"28"	""	""
"60"	"keyword planner adwords"	"6"	"10"	"2017-07-26 04:43:53"	"250"	"http://backlinko.com/google-keyword-planner"	"3.7"	"437000"	"2017-08-25 05:45:35"	"62"	"5.00"	""
"61"	"google adwords planner"	"6"	"8"	"2017-08-17 10:59:23"	"500"	"http://backlinko.com/google-keyword-planner"	"3.7"	"1890000"	"2017-08-31 05:37:37"	"45"	"10.00"	""
"62"	"how to use google adwords keyword tool"	"6"	"7"	"2017-07-14 19:33:21"	"60"	"http://backlinko.com/google-keyword-planner"	"3.7"	"7080000"	"2017-08-29 07:31:38"	"30"	"6.00"	""
"63"	"google adwords keyword finder"	"6"	"5"	"2017-08-07 13:37:16"	"150"	"http://backlinko.com/google-keyword-planner"	"3.6"	"2770000"	"2017-09-06 11:35:05"	"64"	"10.00"	""
"64"	"keyworld planner"	"7"	""	""	"70"	"http://backlinko.com/google-keyword-planner"	"3.4"	"694000"	"2017-08-26 19:22:13"	"59"	""	""
"65"	"google keyword estimator"	"8"	"7"	"2017-06-29 17:11:37"	"90"	"http://backlinko.com/google-keyword-planner"	"3.3"	"1740000"	"2017-08-02 22:31:17"	"77"	"4.00"	""
"66"	"adsense keyword tool"	"10"	"9"	"2017-07-29 15:02:48"	"150"	"http://backlinko.com/google-keyword-planner"	"3.3"	"1190000"	"2017-08-28 04:31:24"	"53"	"6.00"	""
"67"	"google planner tool"	"8"	"7"	"2017-07-11 06:52:53"	"80"	"http://backlinko.com/google-keyword-planner"	"3.2"	"5060000"	"2017-08-28 10:57:35"	"59"	"0.60"	""
"68"	"key planner"	"7"	"6"	"2017-07-04 17:01:45"	"70"	"http://backlinko.com/google-keyword-planner"	"3.2"	"10900000"	"2017-08-16 18:21:05"	"63"	"2.00"	""
"69"	"google keyword planer"	"5"	""	""	"200"	"http://backlinko.com/google-keyword-planner"	"3.1"	"5310000"	"2017-08-19 15:43:59"	"54"	"1.40"	""
"70"	"how to use google keyword planner for free"	"7"	""	""	"60"	"http://backlinko.com/google-keyword-planner"	"3.1"	"8680000"	"2017-09-05 07:25:06"	"32"	""	""
"71"	"google keyword planning"	"4"	"5"	"2017-06-28 11:56:52"	"30"	"http://backlinko.com/google-keyword-planner"	"3.1"	"4610000"	"2017-07-30 18:36:48"	"65"	"2.50"	""
"72"	"using keyword planner"	"2"	""	""	"20"	"http://backlinko.com/google-keyword-planner"	"3.1"	"1590000"	"2017-07-25 15:31:44"	"53"	""	""
"73"	"keyword planning tool"	"8"	""	""	"250"	"http://backlinko.com/google-keyword-planner"	"3.1"	"3250000"	"2017-09-06 07:55:49"	"57"	"6.00"	""
"74"	"google keyword planner free"	"9"	"8"	"2017-08-21 03:54:00"	"350"	"http://backlinko.com/google-keyword-planner"	"3.0"	"11700000"	"2017-09-04 01:22:37"	"65"	"6.00"	""
"75"	"google keyword planner 2016"	"2"	"1"	"2017-07-10 11:30:21"	"20"	"http://backlinko.com/google-keyword-planner"	"2.9"	"5830000"	"2017-08-25 21:46:39"	"41"	""	""
"76"	"use keyword planner"	"2"	"7"	"2017-04-23 05:14:57"	"20"	"http://backlinko.com/google-keyword-planner"	"2.8"	"4760000"	"2017-08-06 19:26:27"	"42"	""	""
"77"	"google keyword analysis"	"7"	"9"	"2017-08-03 09:58:45"	"200"	"http://backlinko.com/google-keyword-planner"	"2.8"	"3360000"	"2017-09-02 08:38:21"	"78"	"1.70"	""
"78"	"google adword planner"	"6"	""	""	"500"	"http://backlinko.com/google-keyword-planner"	"2.7"	"53300"	"2017-09-01 04:58:54"	"46"	"7.00"	""
"79"	"google adwords research"	"7"	"6"	"2017-07-03 09:43:43"	"60"	"http://backlinko.com/google-keyword-planner"	"2.7"	"4220000"	"2017-08-14 23:42:38"	"60"	"14.00"	""
"80"	"keyword tool planner"	"7"	"8"	"2017-07-13 19:44:39"	"60"	"http://backlinko.com/google-keyword-planner"	"2.7"	"550000"	"2017-08-31 02:40:35"	"54"	"4.00"	""
"81"	"is google keyword planner free"	"7"	"6"	"2017-07-07 12:51:11"	"50"	"http://backlinko.com/google-keyword-planner"	"2.6"	"8920000"	"2017-08-21 11:29:20"	"60"	""	""
"82"	"keywords google"	"10"	""	""	"300"	"http://backlinko.com/google-keyword-planner"	"2.6"	"20900000"	"2017-08-26 15:14:23"	"67"	"1.20"	""
"83"	"free google keyword planner"	"7"	"8"	"2017-07-02 11:46:58"	"50"	"http://backlinko.com/google-keyword-planner"	"2.6"	"11300000"	"2017-08-14 17:15:19"	"59"	""	""
"84"	"adword planner"	"7"	""	""	"300"	"http://backlinko.com/google-keyword-planner"	"2.5"	"75000"	"2017-09-01 05:27:23"	"56"	"25.00"	""
"85"	"google keyboard planner"	"5"	"4"	"2017-07-07 02:09:09"	"30"	"http://backlinko.com/google-keyword-planner"	"2.5"	"343000"	"2017-08-21 10:28:33"	"58"	""	""
"86"	"google adwords keyword planner tool"	"10"	"9"	"2017-07-12 17:32:39"	"100"	"http://backlinko.com/google-keyword-planner"	"2.5"	"2780000"	"2017-08-29 23:11:40"	"56"	"3.00"	""
"87"	"keywood planner"	"6"	"8"	"2017-07-09 03:19:49"	"40"	"http://backlinko.com/google-keyword-planner"	"2.5"	"661000"	"2017-08-25 18:06:48"	"57"	""	""
"88"	"google planners"	"8"	"7"	"2017-07-13 21:56:04"	"60"	"http://backlinko.com/google-keyword-planner"	"2.5"	"48800000"	"2017-08-29 04:46:57"	"61"	"1.10"	""
"89"	"keyplanner"	"7"	"6"	"2017-07-03 08:37:30"	"50"	"http://backlinko.com/google-keyword-planner"	"2.4"	"76600000"	"2017-08-15 15:26:18"	"55"	""	""
"90"	"google keyword adword"	"7"	"9"	"2017-07-17 23:44:08"	"50"	"http://backlinko.com/google-keyword-planner"	"2.4"	"3400000"	"2017-09-08 02:35:08"	"48"	"2.50"	""
"91"	"adword keyword planner"	"7"	"6"	"2017-08-06 11:28:42"	"250"	"http://backlinko.com/google-keyword-planner"	"2.4"	"58600"	"2017-09-06 12:32:39"	"59"	"0.80"	""
"92"	"keyword planners"	"7"	"8"	"2017-08-13 22:12:54"	"50"	"http://backlinko.com/google-keyword-planner"	"2.4"	"642000"	"2017-08-14 11:45:37"	"63"	"5.00"	""
"93"	"keyword planner for seo"	"3"	"2"	"2017-07-08 21:36:08"	"20"	"http://backlinko.com/google-keyword-planner"	"2.4"	"439000"	"2017-08-22 13:39:38"	"61"	""	""
"94"	"google adwords keywords planner"	"8"	"6"	"2017-07-12 02:44:57"	"60"	"http://backlinko.com/google-keyword-planner"	"2.3"	"651000"	"2017-08-28 22:12:28"	"64"	"3.00"	""
"95"	"google adwords find keywords"	"3"	"11"	"2016-10-10 18:55:34"	"20"	"http://backlinko.com/google-keyword-planner"	"2.3"	"8830000"	"2017-04-02 12:53:24"	"58"	""	""
"96"	"key word planer"	"9"	"8"	"2017-07-08 23:21:52"	"70"	"http://backlinko.com/google-keyword-planner"	"2.3"	"1710000"	"2017-08-21 23:47:42"	"64"	"5.00"	""
"97"	"keywork planner"	"8"	"9"	"2017-07-09 10:14:35"	"60"	"http://backlinko.com/google-keyword-planner"	"2.3"	"670000"	"2017-08-24 18:36:43"	"58"	"8.00"	""
"98"	"google keyword planner tool 2016"	"2"	"3"	"2017-07-15 13:26:55"	"10"	"http://backlinko.com/google-keyword-planner"	"2.2"	"2320000"	"2017-08-30 10:22:57"	"42"	""	""
"99"	"use google adwords keyword tool"	"6"	""	""	"40"	"http://backlinko.com/google-keyword-planner"	"2.1"	"3490000"	"2017-08-02 08:54:45"	"48"	"4.00"	""
"100"	"google keyword planner tutorial"	"8"	""	""	"50"	"http://backlinko.com/google-keyword-planner"	"2.1"	"2240000"	"2017-09-06 17:37:03"	"22"	"3.00"	""
"101"	"google key words"	"10"	"9"	"2017-08-11 13:13:09"	"700"	"http://backlinko.com/google-keyword-planner"	"2.1"	"49000000"	"2017-08-25 05:32:04"	"81"	"1.80"	""
"102"	"planner google"	"10"	"8"	"2017-07-10 21:36:13"	"80"	"http://backlinko.com/google-keyword-planner"	"2.1"	"43100000"	"2017-08-26 16:38:17"	"62"	""	""
"103"	"google adwords keyword search"	"10"	""	""	"80"	"http://backlinko.com/google-keyword-planner"	"2.0"	"20400000"	"2017-08-27 08:21:39"	"61"	"5.00"	""
"104"	"google keyword planner average monthly searches"	"3"	""	""	"20"	"http://backlinko.com/google-keyword-planner"	"2.0"	"111000"	"2017-09-07 02:15:47"	"32"	""	""
"105"	"adwords google keyword planner"	"6"	"5"	"2017-06-19 19:10:33"	"30"	"http://backlinko.com/google-keyword-planner"	"2.0"	"475000"	"2017-07-20 21:28:25"	"51"	"0.80"	""
"106"	"keywords tools adwords"	"8"	"19"	"2017-02-09 02:26:09"	"50"	"http://backlinko.com/google-keyword-planner"	"1.9"	"574000"	"2017-04-11 16:55:27"	"73"	"2.50"	""
"107"	"enter your search terms here"	"7"	"10"	"2017-06-30 15:30:17"	"40"	"http://backlinko.com/google-keyword-planner"	"1.9"	"344000000"	"2017-08-04 21:50:10"	"28"	""	""
"108"	"adwords keyword search"	"8"	"10"	"2017-07-07 15:08:58"	"50"	"http://backlinko.com/google-keyword-planner"	"1.9"	"11000000"	"2017-08-20 19:58:40"	"60"	"4.00"	""
"109"	"how to find keywords on google"	"6"	"9"	"2017-06-29 19:18:35"	"30"	"http://backlinko.com/google-keyword-planner"	"1.9"	"25000000"	"2017-08-02 18:11:39"	"80"	"0.30"	""
"110"	"keyboard planner"	"6"	""	""	"30"	"http://backlinko.com/google-keyword-planner"	"1.9"	"650000"	"2017-07-26 01:36:13"	"56"	""	""
"111"	"adwords keywords tool"	"10"	"11"	"2017-07-10 23:03:13"	"80"	"http://backlinko.com/google-keyword-planner"	"1.9"	"887000"	"2017-08-26 18:26:28"	"60"	"3.00"	""
"112"	"google adword keyword"	"7"	"10"	"2017-06-26 10:00:55"	"40"	"http://backlinko.com/google-keyword-planner"	"1.8"	"575000"	"2017-07-26 11:01:19"	"60"	"10.00"	""
"113"	"google keyword palnner"	"5"	"4"	"2017-06-26 14:13:29"	"20"	"http://backlinko.com/google-keyword-planner"	"1.8"	"2410000"	"2017-07-26 11:21:39"	"53"	"0.70"	""
"114"	"google adword planner tool"	"6"	"7"	"2017-06-30 19:32:00"	"30"	"http://backlinko.com/google-keyword-planner"	"1.8"	"30800"	"2017-08-04 17:27:23"	"61"	"3.00"	""
"115"	"google planner tools"	"6"	"10"	"2017-07-02 08:00:37"	"30"	"http://backlinko.com/google-keyword-planner"	"1.8"	"6030000"	"2017-08-14 19:21:04"	"50"	""	""
"116"	"google adword tools"	"8"	"41"	"2016-10-07 11:53:53"	"50"	"http://backlinko.com/google-keyword-planner"	"1.7"	"185000"	"2017-03-28 09:36:33"	"76"	"0.02"	""
"117"	"google adwords keyword tool 2015"	"6"	"7"	"2017-06-30 14:28:19"	"30"	"http://backlinko.com/google-keyword-planner"	"1.7"	"4510000"	"2017-08-03 21:04:12"	"19"	"5.00"	""
"118"	"google keywrod planner"	"4"	""	""	"20"	"http://backlinko.com/google-keyword-planner"	"1.7"	"5390000"	"2017-07-22 14:46:27"	"53"	""	""
"119"	"keyword tool adwords"	"9"	"38"	"2017-07-05 22:25:19"	"50"	"http://backlinko.com/google-keyword-planner"	"1.7"	"936000"	"2017-08-17 08:13:33"	"48"	"3.50"	""
"120"	"google keyword ideas"	"7"	"8"	"2017-06-28 11:46:38"	"30"	"http://backlinko.com/google-keyword-planner"	"1.7"	"3080000"	"2017-07-28 23:38:48"	"79"	"3.00"	""
"121"	"how to access google keyword planner"	"6"	"8"	"2017-05-15 20:36:03"	"30"	"http://backlinko.com/google-keyword-planner"	"1.6"	"3440000"	"2017-07-25 09:03:12"	"10"	""	""
"122"	"google keyword planner competition"	"5"	"3"	"2017-07-11 06:41:09"	"20"	"http://backlinko.com/google-keyword-planner"	"1.6"	"2250000"	"2017-08-27 15:11:55"	"48"	"9.00"	""
"123"	"ad words keyword planner"	"6"	""	""	"30"	"http://backlinko.com/google-keyword-planner"	"1.6"	"437000"	"2017-08-11 23:14:33"	"57"	""	""
"124"	"how to use google keywords"	"5"	""	""	"20"	"http://backlinko.com/google-keyword-planner"	"1.6"	"56300000"	"2017-07-25 10:01:33"	"41"	"4.00"	""
"125"	"google keywords adword"	"9"	"11"	"2017-07-15 08:57:58"	"50"	"http://backlinko.com/google-keyword-planner"	"1.5"	"3040000"	"2017-08-31 21:21:15"	"59"	"2.50"	""
"126"	"google adsense keyword planner"	"5"	"8"	"2017-06-27 00:26:10"	"20"	"http://backlinko.com/google-keyword-planner"	"1.5"	"199000"	"2017-07-27 12:40:31"	"60"	""	""
"127"	"planner keywords"	"5"	""	""	"20"	"http://backlinko.com/google-keyword-planner"	"1.5"	"9350000"	"2017-07-25 18:54:33"	"58"	"0.80"	""
"128"	"adsense keyword planner"	"5"	"6"	"2017-07-08 23:31:38"	"20"	"http://backlinko.com/google-keyword-planner"	"1.5"	"371000"	"2017-08-22 22:03:06"	"47"	""	""
"129"	"use google keyword tool"	"8"	""	""	"40"	"http://backlinko.com/google-keyword-planner"	"1.5"	"12900000"	"2017-09-11 04:25:09"	"57"	"6.00"	""
"130"	"google words tools"	"8"	""	""	"40"	"http://backlinko.com/google-keyword-planner"	"1.5"	"102000000"	"2017-08-15 07:42:38"	"89"	"0.80"	""
"131"	"google keywords research"	"8"	"7"	"2017-06-15 00:09:24"	"40"	"http://backlinko.com/google-keyword-planner"	"1.5"	"8190000"	"2017-07-19 17:55:37"	"80"	"5.00"	""
"132"	"google ads keyword planner"	"6"	""	""	"20"	"http://backlinko.com/google-keyword-planner"	"1.5"	"579000"	"2017-09-09 08:46:38"	"48"	"4.00"	""
"133"	"""google keyword planner"""	"4"	"5"	"2017-06-14 02:12:53"	"20"	"http://backlinko.com/google-keyword-planner"	"1.4"	"218000"	"2017-07-19 13:00:13"	"53"	""	""
"134"	"google keywod planner"	"4"	"3"	"2017-06-26 23:34:25"	"20"	"http://backlinko.com/google-keyword-planner"	"1.4"	"5500000"	"2017-07-26 11:56:27"	"53"	""	""
"135"	"google. keyword planner"	"4"	""	""	"20"	"http://backlinko.com/google-keyword-planner"	"1.4"	"5410000"	"2017-07-25 11:44:51"	"53"	""	""
"136"	"using google adwords keyword tool"	"7"	""	""	"30"	"http://backlinko.com/google-keyword-planner"	"1.4"	"3810000"	"2017-09-05 21:59:58"	"53"	"0.50"	""
"137"	"google planner keyword"	"7"	"5"	"2017-07-11 19:27:25"	"30"	"http://backlinko.com/google-keyword-planner"	"1.4"	"5460000"	"2017-08-27 23:10:05"	"63"	"0.80"	""
"138"	"google adwords keyword research"	"7"	"8"	"2017-08-29 13:24:35"	"30"	"http://backlinko.com/google-keyword-planner"	"1.4"	"1660000"	"2017-08-30 20:33:30"	"60"	"5.00"	""
"139"	"googl keyword planner"	"5"	"3"	"2017-07-02 20:13:31"	"20"	"http://backlinko.com/google-keyword-planner"	"1.3"	"5280000"	"2017-08-13 17:30:47"	"57"	""	""
"140"	"google key word planer"	"5"	"4"	"2017-07-18 13:17:32"	"20"	"http://backlinko.com/google-keyword-planner"	"1.3"	"5700000"	"2017-09-04 17:31:57"	"55"	""	""
"141"	"keywrod planner"	"6"	""	""	"20"	"http://backlinko.com/google-keyword-planner"	"1.3"	"627000"	"2017-07-24 08:12:24"	"56"	""	""
"142"	"google key word"	"8"	"9"	"2017-07-18 03:21:58"	"150"	"http://backlinko.com/google-keyword-planner"	"1.2"	"41100000"	"2017-08-17 03:48:04"	"66"	"1.50"	""
"143"	"google adwords keyword planner tutorial"	"6"	"10"	"2017-05-18 03:14:17"	"20"	"http://backlinko.com/google-keyword-planner"	"1.2"	"1120000"	"2017-07-25 08:48:53"	"22"	""	""
"144"	"adwords keyword research tool"	"9"	"13"	"2017-07-02 20:52:28"	"40"	"http://backlinko.com/google-keyword-planner"	"1.2"	"418000"	"2017-08-13 15:47:12"	"66"	"19.00"	""
"145"	"adwords keyword research tool"	"6"	"19"	"2016-09-24 09:40:36"	"20"	"http://backlinko.com/google-keyword-planner"	"1.2"	"788000"	"2017-03-12 12:52:50"	"56"	"0.10"	""
"146"	"google analytics keyword planner"	"6"	""	""	"20"	"http://backlinko.com/google-keyword-planner"	"1.2"	"814000"	"2017-09-11 05:32:59"	"61"	""	""
"147"	"average monthly searches"	"10"	"6"	"2017-04-12 21:14:45"	"50"	"http://backlinko.com/google-keyword-planner"	"1.2"	"3260000"	"2017-07-27 07:57:12"	"12"	""	""
"148"	"seo google keyword"	"8"	"10"	"2017-06-30 14:20:04"	"30"	"http://backlinko.com/google-keyword-planner"	"1.2"	"6230000"	"2017-08-03 18:52:56"	"84"	"0.70"	""
"149"	"google key words tool"	"9"	"11"	"2017-07-13 23:09:28"	"40"	"http://backlinko.com/google-keyword-planner"	"1.1"	"8650000"	"2017-08-30 19:34:55"	"58"	"1.20"	""
"150"	"google keyword adwords tool"	"8"	"12"	"2016-06-15 18:24:06"	"30"	"http://backlinko.com/google-keyword-planner"	"1.1"	"1010000"	"2017-03-11 03:18:43"	"63"	""	""
"151"	"google keyword planner tool tutorial"	"5"	"7"	"2017-07-07 05:58:12"	"10"	"http://backlinko.com/google-keyword-planner"	"1.1"	"1620000"	"2017-08-21 15:27:56"	"40"	""	""
"152"	"googles keyword planner"	"5"	"4"	"2017-07-05 17:22:46"	"10"	"http://backlinko.com/google-keyword-planner"	"1.1"	"4830000"	"2017-08-19 02:29:27"	"58"	""	""
"153"	"google keyword research tools"	"7"	""	""	"20"	"http://backlinko.com/google-keyword-planner"	"1.1"	"12300000"	"2017-04-02 23:07:18"	"81"	""	""
"154"	"adword search"	"9"	"29"	"2016-10-07 18:58:29"	"40"	"http://backlinko.com/google-keyword-planner"	"1.1"	"3990000"	"2017-03-28 10:35:46"	"90"	"0.05"	""
"155"	"google keywood"	"8"	""	""	"30"	"http://backlinko.com/google-keyword-planner"	"1.1"	"51300000"	"2017-08-17 23:52:37"	"76"	"0.60"	""
"156"	"planner keyword"	"7"	""	""	"20"	"http://backlinko.com/google-keyword-planner"	"1.1"	"3790000"	"2017-08-16 23:49:32"	"50"	"0.35"	""
"157"	"google adsense keyword tool"	"9"	"11"	"2017-07-11 20:36:20"	"40"	"http://backlinko.com/google-keyword-planner"	"1.1"	"620000"	"2017-08-28 12:02:10"	"59"	"20.00"	""
"158"	"gogle keyword planner"	"5"	"4"	"2017-07-18 08:19:12"	"10"	"http://backlinko.com/google-keyword-planner"	"1.1"	"5610000"	"2017-09-08 15:47:40"	"55"	""	""
"159"	"search google adwords"	"9"	"42"	"2017-07-16 12:02:29"	"30"	"http://backlinko.com/google-keyword-planner"	"1.1"	"44000000"	"2017-09-06 07:51:59"	"46"	"5.00"	""
"160"	"is keyword planner free"	"9"	""	""	"30"	"http://backlinko.com/google-keyword-planner"	"1.0"	"7270000"	"2017-08-19 17:33:40"	"66"	""	""
"161"	"google keyword planner search"	"8"	""	""	"30"	"http://backlinko.com/google-keyword-planner"	"1.0"	"8000000"	"2017-08-08 11:13:49"	"61"	""	""
"162"	"googlekeyword"	"10"	"9"	"2017-07-14 00:22:59"	"40"	"http://backlinko.com/google-keyword-planner"	"1.0"	"48000000"	"2017-08-31 10:47:20"	"67"	"0.70"	""
"163"	"google keywords planner tool"	"7"	"8"	"2017-07-18 15:48:07"	"20"	"http://backlinko.com/google-keyword-planner"	"1.0"	"2560000"	"2017-09-09 02:48:04"	"57"	"3.00"	""
"164"	"google keyword finder"	"10"	"9"	"2017-08-06 09:58:12"	"200"	"http://backlinko.com/google-keyword-planner"	"0.98"	"5950000"	"2017-09-06 09:17:32"	"64"	"6.00"	""
"165"	"google adwords key planner"	"6"	""	""	"20"	"http://backlinko.com/google-keyword-planner"	"0.98"	"2640000"	"2017-07-22 04:43:04"	"48"	""	""
"166"	"adword keyword"	"6"	"5"	"2017-06-21 17:59:15"	"20"	"http://backlinko.com/google-keyword-planner"	"0.98"	"460000"	"2017-07-22 14:57:00"	"60"	"6.00"	""
"167"	"google keyowrd planner"	"4"	"5"	"2017-08-22 12:21:56"	"10"	"http://backlinko.com/google-keyword-planner"	"0.97"	"5300000"	"2017-08-23 01:40:58"	"50"	""	""
"168"	"google keyword popularity"	"10"	"4"	"2017-06-26 09:31:26"	"40"	"http://backlinko.com/google-keyword-planner"	"0.95"	"6230000"	"2017-07-26 12:57:47"	"77"	"6.00"	""
"169"	"adwords research tool"	"7"	"32"	"2016-09-27 17:57:05"	"20"	"http://backlinko.com/google-keyword-planner"	"0.95"	"670000"	"2017-03-20 10:46:52"	"78"	"0.06"	""
"170"	"keyword plan"	"7"	"6"	"2017-07-11 09:55:28"	"20"	"http://backlinko.com/google-keyword-planner"	"0.93"	"86200000"	"2017-08-27 01:19:37"	"77"	"30.00"	""
"171"	"adwords google com keyword planner"	"7"	"8"	"2017-07-02 23:04:46"	"20"	"http://backlinko.com/google-keyword-planner"	"0.93"	"494000"	"2017-08-14 17:34:01"	"59"	"0.80"	""
"172"	"keyword palnner"	"6"	"7"	"2017-06-24 21:38:55"	"20"	"http://backlinko.com/google-keyword-planner"	"0.93"	"675000"	"2017-07-24 13:29:59"	"56"	""	""
"173"	"keyword planner\"	"9"	"8"	"2017-07-01 13:03:14"	"30"	"http://backlinko.com/google-keyword-planner"	"0.92"	"1790000"	"2017-08-10 23:19:15"	"56"	""	""
"174"	"adwords search tool"	"9"	"19"	"2016-10-19 19:40:46"	"30"	"http://backlinko.com/google-keyword-planner"	"0.90"	"4240000"	"2017-04-07 23:40:10"	"78"	""	""
"175"	"google ad words keyword planner"	"6"	"8"	"2017-07-17 17:30:27"	"10"	"http://backlinko.com/google-keyword-planner"	"0.87"	"2540000"	"2017-09-09 10:43:32"	"54"	""	""
"176"	"keyword research guide"	"1"	""	""	"50"	"http://backlinko.com/google-keyword-planner"	"0.86"	"9380000"	"2017-07-25 08:17:47"	"66"	"2.50"	"Site links"
"177"	"google keyword planner tools"	"8"	"9"	"2017-07-01 13:49:44"	"20"	"http://backlinko.com/google-keyword-planner"	"0.86"	"2000000"	"2017-08-10 21:05:17"	"54"	""	""
"178"	"google adwords planner tool"	"10"	"9"	"2017-06-28 11:37:25"	"30"	"http://backlinko.com/google-keyword-planner"	"0.86"	"3100000"	"2017-07-29 21:53:56"	"63"	"6.00"	""
"179"	"keyword planer"	"7"	"8"	"2017-08-22 03:54:08"	"300"	"http://backlinko.com/google-keyword-planner"	"0.83"	"796000"	"2017-09-05 04:19:18"	"53"	"6.00"	""
"180"	"adwords planner"	"8"	""	""	"450"	"http://backlinko.com/google-keyword-planner"	"0.80"	"585000"	"2017-09-03 02:23:01"	"52"	"7.00"	""
"181"	"google keyword ad planner"	"7"	"5"	"2017-06-25 19:39:12"	"20"	"http://backlinko.com/google-keyword-planner"	"0.80"	"1510000"	"2017-07-25 13:56:23"	"53"	"0.25"	""
"182"	"goolge keyword"	"6"	"10"	"2016-04-26 12:23:16"	"10"	"http://backlinko.com/google-keyword-planner"	"0.80"	"50700000"	"2017-03-13 07:11:16"	"67"	""	""
"183"	"adwords research"	"10"	"9"	"2017-07-04 16:01:06"	"30"	"http://backlinko.com/google-keyword-planner"	"0.80"	"1490000"	"2017-08-16 20:42:36"	"60"	"4.50"	""
"184"	"google keyword research tool tutorial"	"8"	"5"	"2017-07-05 16:40:52"	"20"	"http://backlinko.com/google-keyword-planner"	"0.78"	"2600000"	"2017-08-17 15:58:15"	"47"	"3.00"	""
"185"	"keywod planner"	"8"	"9"	"2017-07-07 02:26:26"	"20"	"http://backlinko.com/google-keyword-planner"	"0.78"	"723000"	"2017-08-20 22:42:59"	"59"	""	""
"186"	"google ad word tools"	"8"	"45"	"2016-04-26 10:27:37"	"20"	"http://backlinko.com/google-keyword-planner"	"0.77"	"192000"	"2017-03-09 21:30:57"	"60"	""	""
"187"	"keyword ad planner"	"8"	"6"	"2017-07-04 18:06:06"	"20"	"http://backlinko.com/google-keyword-planner"	"0.77"	"574000"	"2017-08-16 16:28:20"	"80"	"3.00"	""
"188"	"google keywords ideas"	"8"	"6"	"2017-07-09 12:46:50"	"20"	"http://backlinko.com/google-keyword-planner"	"0.77"	"5160000"	"2017-08-24 20:47:17"	"80"	"0.60"	""
"189"	"google keywork search"	"8"	"7"	"2017-06-22 17:29:05"	"20"	"http://backlinko.com/google-keyword-planner"	"0.77"	"28600000"	"2017-07-23 17:08:26"	"60"	""	""
"190"	"google adwords find keywords"	"8"	"6"	"2017-07-12 14:40:01"	"20"	"http://backlinko.com/google-keyword-planner"	"0.76"	"12500000"	"2017-08-28 22:20:47"	"63"	"7.00"	""
"191"	"google word tool"	"9"	"8"	"2017-06-29 22:27:59"	"20"	"http://backlinko.com/google-keyword-planner"	"0.76"	"69300000"	"2017-08-02 04:47:35"	"72"	"1.30"	""
"192"	"google keyworks"	"5"	"7"	"2016-06-11 13:21:06"	"10"	"http://backlinko.com/google-keyword-planner"	"0.76"	"48600000"	"2017-03-11 05:05:50"	"67"	""	""
"193"	"adword research"	"8"	""	""	"20"	"http://backlinko.com/google-keyword-planner"	"0.76"	"356000"	"2017-09-06 22:05:36"	"57"	"13.00"	""
"194"	"google ads keyword"	"8"	"10"	"2017-07-24 08:38:40"	"20"	"http://backlinko.com/google-keyword-planner"	"0.75"	"8700000"	"2017-09-11 05:23:49"	"48"	""	""
"195"	"adword keyword finder"	"5"	""	""	"10"	"http://backlinko.com/google-keyword-planner"	"0.75"	"20900"	"2017-04-22 04:41:21"	"78"	"8.00"	""
"196"	"using google adwords to find keywords"	"6"	""	""	"10"	"http://backlinko.com/google-keyword-planner"	"0.75"	"2590000"	"2017-07-23 16:47:05"	"49"	"4.50"	""
"197"	"google keword search"	"8"	"7"	"2017-07-03 13:29:32"	"20"	"http://backlinko.com/google-keyword-planner"	"0.75"	"48700000"	"2017-08-15 14:47:31"	"59"	""	""
"198"	"keyword plannner"	"7"	""	""	"20"	"http://backlinko.com/google-keyword-planner"	"0.74"	"745000"	"2017-07-27 02:04:24"	"64"	""	""
"199"	"google keyword adword tool"	"10"	"9"	"2017-07-15 10:39:49"	"30"	"http://backlinko.com/google-keyword-planner"	"0.74"	"738000"	"2017-08-31 15:52:30"	"56"	"5.00"	""
"200"	"keyword research tools google"	"10"	"13"	"2017-06-30 19:07:35"	"30"	"http://backlinko.com/google-keyword-planner"	"0.71"	"5230000"	"2017-08-04 16:50:56"	"63"	"2.50"	""
"201"	"googleadwords keyword tool"	"10"	"17"	"2017-06-30 17:13:36"	"30"	"http://backlinko.com/google-keyword-planner"	"0.71"	"2750000"	"2017-08-03 23:25:16"	"80"	"6.00"	""
"202"	"keyword planning"	"7"	"6"	"2017-07-07 14:20:32"	"10"	"http://backlinko.com/google-keyword-planner"	"0.70"	"61300000"	"2017-08-21 20:28:36"	"61"	"4.50"	""
"203"	"google keywords adwords"	"9"	"11"	"2017-07-20 07:25:43"	"20"	"http://backlinko.com/google-keyword-planner"	"0.69"	"7860000"	"2017-09-09 16:51:15"	"60"	"3.00"	""
"204"	"google keyword planner exact match"	"8"	""	""	"20"	"http://backlinko.com/google-keyword-planner"	"0.69"	"124000"	"2017-07-19 14:39:01"	"11"	""	""
"205"	"how to research keywords for google adwords"	"6"	"8"	"2017-01-26 23:28:58"	"10"	"http://backlinko.com/google-keyword-planner"	"0.69"	"2120000"	"2017-04-24 04:14:44"	"79"	"8.00"	""
"206"	"google keyword suggestions"	"9"	"20"	"2016-09-27 00:04:00"	"20"	"http://backlinko.com/google-keyword-planner"	"0.66"	"4130000"	"2017-03-14 03:18:02"	"89"	""	""
"207"	"gooogle keyword"	"7"	"8"	"2016-03-27 12:57:27"	"10"	"http://backlinko.com/google-keyword-planner"	"0.64"	"116000000"	"2017-03-02 21:15:32"	"75"	"0.07"	""
"208"	"gooogle keyword"	"7"	"8"	"2016-03-27 12:57:27"	"10"	"http://backlinko.com/google-keyword-planner"	"0.64"	"116000000"	"2017-03-02 21:41:30"	"75"	"0.07"	""
"209"	"google keyword searcher"	"7"	"13"	"2016-06-11 00:09:53"	"10"	"http://backlinko.com/google-keyword-planner"	"0.64"	"47100000"	"2017-03-08 18:50:45"	"63"	""	""
"210"	"gooogle keywords"	"7"	"6"	"2016-06-19 20:23:04"	"10"	"http://backlinko.com/google-keyword-planner"	"0.64"	"56300000"	"2017-03-11 23:59:12"	"63"	""	""
"211"	"keyword planner tool google"	"9"	"8"	"2017-06-18 18:32:52"	"20"	"http://backlinko.com/google-keyword-planner"	"0.63"	"2110000"	"2017-07-20 17:12:26"	"61"	"2.50"	""
"212"	"google keyword research tool tutorial"	"9"	"6"	"2016-10-20 15:37:53"	"20"	"http://backlinko.com/google-keyword-planner"	"0.63"	"2010000"	"2017-04-09 20:40:34"	"43"	"0.06"	""
"213"	"google ad keyword tool"	"8"	"11"	"2017-06-24 20:44:31"	"20"	"http://backlinko.com/google-keyword-planner"	"0.62"	"3980000"	"2017-07-24 15:42:26"	"53"	"6.00"	""
"214"	"google ad keyword"	"9"	""	""	"20"	"http://backlinko.com/google-keyword-planner"	"0.62"	"11000000"	"2017-09-09 16:58:08"	"58"	"17.00"	""
"215"	"google kewords"	"8"	""	""	"20"	"http://backlinko.com/google-keyword-planner"	"0.61"	"42800000"	"2017-08-15 14:31:34"	"66"	"0.70"	""
"216"	"google adwords keyword tools"	"9"	"6"	"2017-07-09 20:40:59"	"20"	"http://backlinko.com/google-keyword-planner"	"0.60"	"3170000"	"2017-08-24 20:12:36"	"60"	"1.20"	""
"217"	"google ad tools"	"10"	"11"	"2017-07-12 17:39:29"	"20"	"http://backlinko.com/google-keyword-planner"	"0.60"	"102000000"	"2017-08-30 16:10:40"	"65"	"4.50"	""
"218"	"adwords keywords planner"	"7"	"6"	"2017-06-21 23:04:47"	"10"	"http://backlinko.com/google-keyword-planner"	"0.60"	"408000"	"2017-07-22 16:16:17"	"59"	"3.50"	""
"219"	"how to use google adwords to find keywords"	"7"	"5"	"2017-07-17 01:45:04"	"10"	"http://backlinko.com/google-keyword-planner"	"0.59"	"2620000"	"2017-09-06 21:01:24"	"35"	"14.00"	""
"220"	"www.google.com/keyword planner"	"10"	"8"	"2017-07-17 17:26:19"	"20"	"http://backlinko.com/google-keyword-planner"	"0.57"	"5800000"	"2017-09-06 17:09:13"	"63"	""	""
"221"	"keyword planner tutorial"	"8"	"7"	"2017-07-07 02:20:01"	"10"	"http://backlinko.com/google-keyword-planner"	"0.56"	"465000"	"2017-08-20 17:01:55"	"28"	""	""
"222"	"what is suggested bid in google adwords"	"9"	"7"	"2017-07-16 00:47:31"	"20"	"http://backlinko.com/google-keyword-planner"	"0.54"	"724000"	"2017-09-04 12:04:57"	"11"	""	""
"223"	"research keywords google"	"7"	"8"	"2017-07-16 16:55:23"	"10"	"http://backlinko.com/google-keyword-planner"	"0.53"	"10400000"	"2017-09-05 21:14:00"	"75"	"0.40"	""
"224"	"keyowrd planner"	"7"	""	""	"10"	"http://backlinko.com/google-keyword-planner"	"0.52"	"612000"	"2017-07-28 22:05:56"	"56"	""	""
"225"	"gooogle keywords"	"9"	"8"	"2017-07-02 22:28:49"	"20"	"http://backlinko.com/google-keyword-planner"	"0.51"	"8540000"	"2017-08-12 00:47:53"	"66"	"3.50"	""
"226"	"google adwords free keyword tool"	"10"	"13"	"2017-07-08 17:51:53"	"20"	"http://backlinko.com/google-keyword-planner"	"0.50"	"5940000"	"2017-08-22 12:01:53"	"60"	"2.00"	""
"227"	"find keywords google"	"7"	"9"	"2017-07-12 21:32:07"	"10"	"http://backlinko.com/google-keyword-planner"	"0.50"	"25300000"	"2017-08-29 21:50:25"	"78"	"1.70"	""
"228"	"local monthly searches google keyword tool"	"7"	"4"	"2017-07-24 11:16:06"	"10"	"http://backlinko.com/google-keyword-planner"	"0.49"	"225000"	"2017-09-11 05:01:39"	"34"	"11.00"	""
"229"	"google monthly searches for keywords"	"7"	"6"	"2016-03-09 07:26:43"	"10"	"http://backlinko.com/google-keyword-planner"	"0.48"	"1890000"	"2017-03-08 11:23:08"	"90"	"0.08"	""
"230"	"google keyword ad tool"	"7"	"11"	"2016-07-18 02:12:55"	"10"	"http://backlinko.com/google-keyword-planner"	"0.48"	"1380000"	"2017-03-09 20:54:09"	"71"	"0.07"	""
"231"	"adword keyword tools"	"7"	"11"	"2016-06-14 10:19:26"	"10"	"http://backlinko.com/google-keyword-planner"	"0.48"	"142000"	"2017-03-10 01:23:08"	"58"	""	""
"232"	"google monthly searches for keywords"	"7"	"6"	"2016-03-09 07:26:43"	"10"	"http://backlinko.com/google-keyword-planner"	"0.48"	"1910000"	"2017-03-08 10:53:27"	"90"	"0.08"	""
"233"	"google keyword estimator tool"	"7"	"25"	"2017-03-20 12:26:05"	"10"	"http://backlinko.com/google-keyword-planner"	"0.48"	"851000"	"2017-05-18 00:20:42"	"92"	"0.60"	""
"234"	"google suggested bid"	"8"	"7"	"2017-07-02 09:48:06"	"10"	"http://backlinko.com/google-keyword-planner"	"0.48"	"6110000"	"2017-08-13 19:14:51"	"4"	""	""
"235"	"keywords planner tool"	"7"	"9"	"2017-07-16 19:45:08"	"10"	"http://backlinko.com/google-keyword-planner"	"0.44"	"628000"	"2017-09-04 11:55:26"	"60"	"8.00"	""
"236"	"how to get google keywords"	"8"	""	""	"10"	"http://backlinko.com/google-keyword-planner"	"0.40"	"19800000"	"2017-07-23 17:04:19"	"64"	"6.00"	""
"237"	"adword suggestion tool"	"8"	"24"	"2017-07-02 22:29:37"	"10"	"http://backlinko.com/google-keyword-planner"	"0.40"	"905000"	"2017-08-14 16:56:06"	"78"	"8.00"	""
"238"	"adwords keyword suggestions"	"8"	"12"	"2016-06-19 08:52:07"	"10"	"http://backlinko.com/google-keyword-planner"	"0.39"	"496000"	"2017-03-11 16:33:30"	"88"	""	""
"239"	"google search adwords keyword tool"	"8"	"37"	"2017-01-26 22:56:34"	"10"	"http://backlinko.com/google-keyword-planner"	"0.38"	"4460000"	"2017-04-22 10:26:20"	"62"	"0.25"	""
"240"	"adwords research tool"	"9"	"8"	"2017-07-05 12:53:05"	"10"	"http://backlinko.com/google-keyword-planner"	"0.38"	"1040000"	"2017-08-17 23:01:29"	"59"	"5.00"	""
"241"	"find google keywords"	"9"	""	""	"10"	"http://backlinko.com/google-keyword-planner"	"0.38"	"26600000"	"2017-09-05 15:08:44"	"64"	"9.00"	""
"242"	"how to check keyword popularity"	"9"	"12"	"2017-06-23 15:13:16"	"10"	"http://backlinko.com/google-keyword-planner"	"0.34"	"924000"	"2017-07-23 22:57:15"	"81"	"8.00"	""
"243"	"google adwords estimator keyword tool"	"9"	"8"	"2017-07-16 17:45:28"	"10"	"http://backlinko.com/google-keyword-planner"	"0.32"	"500000"	"2017-09-03 12:35:22"	"58"	"0.80"	""
"244"	"adwords keyword checker"	"9"	"14"	"2017-07-07 15:38:40"	"10"	"http://backlinko.com/google-keyword-planner"	"0.32"	"389000"	"2017-08-21 16:32:03"	"79"	"16.00"	""
"245"	"google keyworks"	"9"	"6"	"2017-07-04 06:10:39"	"10"	"http://backlinko.com/google-keyword-planner"	"0.32"	"64400000"	"2017-08-16 18:45:35"	"66"	"4.50"	""
"246"	"adwords keyword search tool"	"9"	"10"	"2017-07-24 00:39:36"	"10"	"http://backlinko.com/google-keyword-planner"	"0.32"	"3610000"	"2017-09-11 04:44:56"	"48"	"1.30"	""
"247"	"google adwords research keyword tool"	"9"	"11"	"2016-03-09 21:59:05"	"10"	"http://backlinko.com/google-keyword-planner"	"0.31"	"536000"	"2017-03-02 13:49:13"	"63"	""	""
"248"	"adword keywords tools"	"9"	"13"	"2016-04-25 20:42:03"	"10"	"http://backlinko.com/google-keyword-planner"	"0.31"	"134000"	"2017-03-05 00:54:39"	"73"	""	""
"249"	"google adwords research keyword tool"	"9"	"11"	"2016-03-09 21:59:05"	"10"	"http://backlinko.com/google-keyword-planner"	"0.31"	"536000"	"2017-03-02 13:35:26"	"63"	""	""
"250"	"adwords keyword suggestions"	"10"	"13"	"2017-07-03 11:31:14"	"10"	"http://backlinko.com/google-keyword-planner"	"0.27"	"727000"	"2017-08-15 11:18:15"	"82"	"5.00"	""
"251"	"adwords keywords tools"	"10"	"7"	"2017-03-09 12:08:08"	"10"	"http://backlinko.com/google-keyword-planner"	"0.25"	"732000"	"2017-05-16 06:59:51"	"74"	"0.60"	""
"252"	"google key search tool"	"10"	"22"	"2016-04-22 19:02:01"	"10"	"http://backlinko.com/google-keyword-planner"	"0.25"	"381000000"	"2017-03-04 07:40:56"	"79"	""	""
"253"	"google keyword analyzer tool"	"10"	""	""	"10"	"http://backlinko.com/google-keyword-planner"	"0.25"	"519000"	"2017-03-08 09:25:53"	"85"	""	""
"254"	"google keyword serach"	"10"	"7"	"2017-03-11 06:40:05"	"10"	"http://backlinko.com/google-keyword-planner"	"0.25"	"26500000"	"2017-05-13 18:16:10"	"65"	"0.50"	""
"255"	"goolge keywords"	"10"	"5"	"2017-01-23 23:15:12"	"10"	"http://backlinko.com/google-keyword-planner"	"0.24"	"26400000"	"2017-04-22 19:55:15"	"67"	"3.50"	""
"256"	"backlinko keyword research"	"1"	""	""	"10"	"http://backlinko.com/google-keyword-planner"	"0.09"	"57100"	"2017-09-04 06:16:15"	"69"	""	"Site links"
"257"	"google keywords"	"6"	""	""	"10000"	"http://backlinko.com/google-keyword-planner"	"0.02"	"27800000"	"2017-03-02 03:10:12"	"79"	"3.00"	""
"258"	"keyword planner"	"7"	""	""	"86000"	"http://backlinko.com/google-keyword-planner"	"0.01"	"669000"	"2017-09-06 02:07:42"	"53"	"5.00"	""
"259"	"google keyword planner"	"7"	"5"	"2017-09-02 01:24:16"	"61000"	"http://backlinko.com/google-keyword-planner"	"0.01"	"5590000"	"2017-09-06 01:42:11"	"60"	"1.00"	""
"260"	"google keywords"	"9"	""	""	"9300"	"http://backlinko.com/google-keyword-planner"	"0.00"	"32900000"	"2017-05-16 02:47:29"	"64"	"3.00"	""
"261"	"google keyword"	"9"	""	""	"4200"	"http://backlinko.com/google-keyword-planner"	"0.00"	"59300000"	"2017-09-05 01:50:33"	"67"	"3.50"	""
"262"	"google keywords"	"10"	"9"	"2017-08-31 02:55:05"	"10000"	"http://backlinko.com/google-keyword-planner"	"0.00"	"46700000"	"2017-09-03 03:04:10"	"63"	"3.00"	""
