#	Keyword	Position	Position History	Position History Date	Volume	URL	Traffic	Results	Last Update	Difficulty	CPC	Page URL inside
"1"	"long tail keyword tool"	"1"	"2"	"2017-05-05 09:29:27"	"300"	"http://backlinko.com/long-tail-keywords"	"150"	"1100000"	"2017-05-20 01:29:38"	"54"	"7.00"	""
"2"	"long tail keyword tool"	"2"	""	""	"350"	"http://backlinko.com/long-tail-keywords"	"57"	"1600000"	"2017-08-31 03:19:28"	"45"	"7.00"	""
"3"	"long tail keywords"	"7"	""	""	"3100"	"http://backlinko.com/long-tail-keywords"	"57"	"2100000"	"2017-09-03 03:25:01"	"51"	"9.00"	""
"4"	"longtail keywords tool"	"2"	"3"	"2017-06-30 08:10:32"	"150"	"http://backlinko.com/long-tail-keywords"	"19"	"1730000"	"2017-08-01 19:34:27"	"56"	"6.00"	""
"5"	"longtail keywords tool"	"2"	""	""	"150"	"http://backlinko.com/long-tail-keywords"	"19"	"1730000"	"2017-09-01 13:06:24"	"66"	"6.00"	""
"6"	"long tail keywords tool"	"2"	"3"	"2017-07-06 09:22:27"	"100"	"http://backlinko.com/long-tail-keywords"	"16"	"1760000"	"2017-08-10 13:38:59"	"56"	"8.00"	""
"7"	"how to find long tail keywords"	"3"	"2"	"2017-07-08 06:25:34"	"150"	"http://backlinko.com/long-tail-keywords"	"16"	"18100000"	"2017-08-10 14:35:25"	"41"	"7.00"	""
"8"	"find long tail keywords"	"1"	""	""	"40"	"http://backlinko.com/long-tail-keywords"	"15"	"4630000"	"2017-03-13 04:20:55"	"31"	"0.08"	""
"9"	"long tail keyword research"	"2"	""	""	"100"	"http://backlinko.com/long-tail-keywords"	"14"	"2610000"	"2017-09-09 08:42:27"	"65"	"8.00"	""
"10"	"find long tail keywords"	"2"	""	""	"100"	"http://backlinko.com/long-tail-keywords"	"14"	"16700000"	"2017-09-08 20:16:52"	"52"	"6.00"	""
"11"	"how to find longtail keywords"	"3"	"2"	"2017-07-05 19:13:17"	"100"	"http://backlinko.com/long-tail-keywords"	"11"	"4320000"	"2017-08-19 04:37:56"	"55"	"6.00"	""
"12"	"longtail keyword research"	"2"	"1"	"2017-07-08 21:08:51"	"80"	"http://backlinko.com/long-tail-keywords"	"11"	"438000"	"2017-08-22 14:03:32"	"68"	"7.00"	""
"13"	"longtail keyword tool"	"4"	"3"	"2017-07-19 04:01:59"	"100"	"http://backlinko.com/long-tail-keywords"	"11"	"579000"	"2017-08-18 06:45:05"	"77"	"9.00"	""
"14"	"free long tail keyword tool"	"4"	"3"	"2017-07-09 23:00:04"	"100"	"http://backlinko.com/long-tail-keywords"	"10"	"8630000"	"2017-08-24 19:57:37"	"63"	"6.00"	""
"15"	"long-tail keywords"	"7"	""	""	"300"	"http://backlinko.com/long-tail-keywords"	"8"	"6960000"	"2017-09-01 04:51:26"	"56"	""	""
"16"	"longtail keywords"	"7"	"8"	"2017-08-25 02:48:19"	"350"	"http://backlinko.com/long-tail-keywords"	"7"	"2410000"	"2017-09-10 02:26:37"	"56"	"8.00"	""
"17"	"long tail keyword search"	"2"	""	""	"50"	"http://backlinko.com/long-tail-keywords"	"7"	"1770000"	"2017-07-22 15:08:16"	"60"	"7.00"	""
"18"	"longtail keyword research tool"	"2"	""	""	"50"	"http://backlinko.com/long-tail-keywords"	"6"	"416000"	"2017-08-16 22:25:54"	"67"	"9.00"	""
"19"	"longtail searches"	"7"	"6"	"2017-08-01 21:15:07"	"150"	"http://backlinko.com/long-tail-keywords"	"6"	"6740000"	"2017-08-31 08:57:53"	"59"	"14.00"	""
"20"	"long tail keyword"	"7"	""	""	"250"	"http://backlinko.com/long-tail-keywords"	"6"	"11000000"	"2017-08-24 09:45:17"	"68"	"10.00"	""
"21"	"best free long tail keyword tool"	"1"	""	""	"20"	"http://backlinko.com/long-tail-keywords"	"5"	"1100000"	"2017-09-08 10:32:26"	"39"	""	"Featured snippet"
"22"	"long tail keyword research tool"	"2"	"1"	"2017-04-12 02:27:00"	"40"	"http://backlinko.com/long-tail-keywords"	"5"	"2010000"	"2017-07-30 21:18:41"	"52"	"9.00"	""
"23"	"long tail keyword generator"	"10"	""	""	"200"	"http://backlinko.com/long-tail-keywords"	"5"	"425000"	"2017-09-08 03:03:51"	"34"	"5.00"	""
"24"	"longtail keyword"	"7"	"5"	"2017-07-12 10:37:04"	"200"	"http://backlinko.com/long-tail-keywords"	"5"	"3480000"	"2017-08-12 22:49:22"	"64"	"9.00"	""
"25"	"long tail keyword finder"	"4"	""	""	"60"	"http://backlinko.com/long-tail-keywords"	"5"	"1370000"	"2017-09-05 08:26:09"	"67"	"6.00"	""
"26"	"what are long tailed keywords"	"7"	"8"	"2017-04-11 21:00:22"	"100"	"http://backlinko.com/long-tail-keywords"	"4.8"	"990000"	"2017-07-25 08:21:30"	"57"	"2.50"	""
"27"	"long tailed keywords"	"6"	""	""	"70"	"http://backlinko.com/long-tail-keywords"	"4.5"	"1090000"	"2017-09-01 22:56:25"	"50"	""	""
"28"	"longtail keyword search"	"2"	""	""	"30"	"http://backlinko.com/long-tail-keywords"	"4.4"	"4550000"	"2017-08-04 22:44:43"	"61"	"6.00"	""
"29"	"how to find keywords"	"10"	"13"	"2017-08-21 05:54:43"	"250"	"http://backlinko.com/long-tail-keywords"	"4.4"	"146000000"	"2017-09-04 01:35:01"	"30"	"6.00"	""
"30"	"long tail keyword search tool"	"1"	"2"	"2017-01-29 22:04:56"	"10"	"http://backlinko.com/long-tail-keywords"	"3.8"	"111000000"	"2017-04-25 03:11:43"	"42"	"6.00"	""
"31"	"what is a long tail keyword"	"7"	"6"	"2017-07-10 09:47:50"	"150"	"http://backlinko.com/long-tail-keywords"	"3.8"	"1810000"	"2017-08-11 16:57:52"	"56"	"9.00"	""
"32"	"long tail keywords search"	"3"	""	""	"30"	"http://backlinko.com/long-tail-keywords"	"3.4"	"22400000"	"2017-08-15 22:19:16"	"61"	"8.00"	""
"33"	"long tail keywords examples"	"5"	"8"	"2017-06-29 16:17:17"	"40"	"http://backlinko.com/long-tail-keywords"	"3.3"	"1660000"	"2017-08-03 01:12:04"	"42"	"11.00"	""
"34"	"long tail search"	"8"	"6"	"2017-07-13 23:20:48"	"80"	"http://backlinko.com/long-tail-keywords"	"3.2"	"9570000"	"2017-08-29 04:12:16"	"59"	"6.00"	""
"35"	"best long tail keyword tool"	"3"	"2"	"2017-07-15 23:07:46"	"20"	"http://backlinko.com/long-tail-keywords"	"2.5"	"2570000"	"2017-09-03 22:31:55"	"51"	"0.60"	""
"36"	"longtail keyword tool free"	"3"	""	""	"20"	"http://backlinko.com/long-tail-keywords"	"2.4"	"2650000"	"2017-08-14 12:34:48"	"70"	"5.00"	""
"37"	"finding long tail keywords"	"3"	"2"	"2017-07-16 17:49:36"	"20"	"http://backlinko.com/long-tail-keywords"	"2.4"	"1750000"	"2017-09-05 20:12:16"	"53"	"9.00"	""
"38"	"how to find long tail keywords free"	"3"	"2"	"2017-07-08 09:22:18"	"20"	"http://backlinko.com/long-tail-keywords"	"2.3"	"35200000"	"2017-08-22 21:06:50"	"63"	"0.50"	""
"39"	"long-tail keyword"	"6"	"7"	"2017-04-18 16:59:23"	"30"	"http://backlinko.com/long-tail-keywords"	"2.1"	"1870000"	"2017-07-24 09:10:45"	"59"	""	""
"40"	"long tail keywords example"	"9"	"4"	"2017-07-17 07:30:34"	"70"	"http://backlinko.com/long-tail-keywords"	"2.1"	"1810000"	"2017-09-08 14:19:00"	"52"	""	""
"41"	"how to find long tail keywords using google keyword tool"	"3"	"2"	"2017-07-15 14:10:07"	"20"	"http://backlinko.com/long-tail-keywords"	"2.0"	"3980000"	"2017-09-02 23:55:28"	"35"	""	""
"42"	"keyword long tail"	"8"	"7"	"2017-07-19 20:04:22"	"50"	"http://backlinko.com/long-tail-keywords"	"1.8"	"1790000"	"2017-09-10 23:10:47"	"58"	"6.00"	""
"43"	"long tail keyword tool free"	"4"	""	""	"20"	"http://backlinko.com/long-tail-keywords"	"1.8"	"3010000"	"2017-08-02 22:52:55"	"56"	""	""
"44"	"what is long tail keywords"	"7"	"6"	"2017-07-05 15:09:36"	"40"	"http://backlinko.com/long-tail-keywords"	"1.7"	"2040000"	"2017-08-17 20:12:11"	"62"	"7.00"	""
"45"	"best long tail keyword research tool"	"2"	""	""	"10"	"http://backlinko.com/long-tail-keywords"	"1.6"	"535000"	"2017-09-10 16:31:43"	"55"	"10.00"	""
"46"	"long tail research"	"3"	""	""	"10"	"http://backlinko.com/long-tail-keywords"	"1.5"	"4650000"	"2017-08-19 22:12:20"	"69"	""	""
"47"	"long tail key words"	"7"	"6"	"2017-07-12 18:25:59"	"30"	"http://backlinko.com/long-tail-keywords"	"1.4"	"1980000"	"2017-08-28 15:13:30"	"55"	"5.00"	""
"48"	"longtail keyword finder"	"5"	""	""	"20"	"http://backlinko.com/long-tail-keywords"	"1.3"	"467000"	"2017-07-26 12:28:31"	"87"	""	""
"49"	"what is long tail keywords"	"8"	"6"	"2016-10-03 19:10:28"	"30"	"http://backlinko.com/long-tail-keywords"	"1.2"	"1400000"	"2017-03-22 14:58:16"	"56"	"0.06"	""
"50"	"what is long tail keyword"	"9"	"7"	"2017-07-05 15:30:53"	"40"	"http://backlinko.com/long-tail-keywords"	"1.2"	"1810000"	"2017-08-19 17:43:34"	"62"	"2.50"	""
"51"	"best free long tail keyword tool"	"5"	"2"	"2017-07-17 14:36:50"	"20"	"http://backlinko.com/long-tail-keywords"	"1.2"	"1100000"	"2017-09-08 10:32:26"	"39"	""	""
"52"	"what are long tail keywords"	"9"	"5"	"2017-07-28 21:00:17"	"100"	"http://backlinko.com/long-tail-keywords"	"1.1"	"2070000"	"2017-08-27 07:32:44"	"55"	"9.00"	""
"53"	"how to use long tail keywords"	"10"	"7"	"2017-07-19 19:03:21"	"40"	"http://backlinko.com/long-tail-keywords"	"1.0"	"14800000"	"2017-09-06 23:30:16"	"51"	""	""
"54"	"long tail keyword phrases"	"10"	""	""	"40"	"http://backlinko.com/long-tail-keywords"	"0.99"	"576000"	"2017-07-29 18:48:57"	"58"	""	""
"55"	"longtail keyword generator"	"8"	"10"	"2017-04-20 06:31:48"	"30"	"http://backlinko.com/long-tail-keywords"	"0.96"	"225000"	"2017-07-24 08:58:51"	"70"	"8.00"	""
"56"	"what is a longtail keyword"	"7"	"6"	"2017-07-19 09:08:32"	"20"	"http://backlinko.com/long-tail-keywords"	"0.95"	"411000"	"2017-09-09 20:52:41"	"54"	""	""
"57"	"find long tail keywords free"	"4"	"3"	"2017-07-06 18:05:22"	"10"	"http://backlinko.com/long-tail-keywords"	"0.93"	"9770000"	"2017-08-20 12:48:24"	"51"	"8.00"	""
"58"	"long tail searches"	"9"	"7"	"2016-11-11 18:15:27"	"30"	"http://backlinko.com/long-tail-keywords"	"0.92"	"937000"	"2017-04-25 14:43:48"	"58"	"14.00"	""
"59"	"long tail phrases"	"8"	"7"	"2017-07-20 13:56:16"	"20"	"http://backlinko.com/long-tail-keywords"	"0.92"	"1440000"	"2017-09-07 05:12:48"	"54"	""	""
"60"	"keyword research guide"	"1"	""	""	"50"	"http://backlinko.com/long-tail-keywords"	"0.86"	"9380000"	"2017-07-25 08:17:47"	"66"	"2.50"	"Site links"
"61"	"examples of long tail keywords"	"8"	""	""	"20"	"http://backlinko.com/long-tail-keywords"	"0.81"	"1720000"	"2017-07-22 11:35:42"	"55"	"8.00"	""
"62"	"long tailed keywords generator"	"8"	"11"	"2017-06-27 15:22:48"	"20"	"http://backlinko.com/long-tail-keywords"	"0.76"	"2850000"	"2017-07-27 13:58:27"	"70"	"3.00"	""
"63"	"search long tail keywords"	"5"	"2"	"2016-06-19 08:26:36"	"10"	"http://backlinko.com/long-tail-keywords"	"0.76"	"6490000"	"2017-03-13 11:35:34"	"60"	""	""
"64"	"seo long tail keywords"	"10"	"8"	"2017-06-26 09:11:46"	"20"	"http://backlinko.com/long-tail-keywords"	"0.48"	"1090000"	"2017-07-26 11:49:58"	"59"	"11.00"	""
"65"	"find similar keywords"	"9"	"19"	"2017-07-03 08:11:55"	"10"	"http://backlinko.com/long-tail-keywords"	"0.34"	"96200000"	"2017-08-15 12:11:25"	"85"	"5.00"	""
